tick counter/simulation/qsim/lab3ex.msim.vcd
$comment
	File created using the following command:
		vcd file lab3ex.msim.vcd -direction
$end
$date
	Tue Jan 19 07:47:12 2021
$end
$version
	ModelSim Version 10.1d
$end
$timescale
	1ps
$end
$scope module tick_counter_vlg_vec_tst $end
$var reg 1 ! clkin $end
$var reg 1 " enable $end
$var wire 1 # count [15] $end
$var wire 1 $ count [14] $end
$var wire 1 % count [13] $end
$var wire 1 & count [12] $end
$var wire 1 ' count [11] $end
$var wire 1 ( count [10] $end
$var wire 1 ) count [9] $end
$var wire 1 * count [8] $end
$var wire 1 + count [7] $end
$var wire 1 , count [6] $end
$var wire 1 - count [5] $end
$var wire 1 . count [4] $end
$var wire 1 / count [3] $end
$var wire 1 0 count [2] $end
$var wire 1 1 count [1] $end
$var wire 1 2 count [0] $end
$var wire 1 3 counter [15] $end
$var wire 1 4 counter [14] $end
$var wire 1 5 counter [13] $end
$var wire 1 6 counter [12] $end
$var wire 1 7 counter [11] $end
$var wire 1 8 counter [10] $end
$var wire 1 9 counter [9] $end
$var wire 1 : counter [8] $end
$var wire 1 ; counter [7] $end
$var wire 1 < counter [6] $end
$var wire 1 = counter [5] $end
$var wire 1 > counter [4] $end
$var wire 1 ? counter [3] $end
$var wire 1 @ counter [2] $end
$var wire 1 A counter [1] $end
$var wire 1 B counter [0] $end
$var wire 1 C tick $end
$var wire 1 D sampler $end
$scope module i1 $end
$var wire 1 E gnd $end
$var wire 1 F vcc $end
$var wire 1 G unknown $end
$var tri1 1 H devclrn $end
$var tri1 1 I devpor $end
$var tri1 1 J devoe $end
$var wire 1 K Equal0~3_combout $end
$var wire 1 L clkin~combout $end
$var wire 1 M clkin~clkctrl_outclk $end
$var wire 1 N Add0~0_combout $end
$var wire 1 O enable~combout $end
$var wire 1 P count[0]~reg0_regout $end
$var wire 1 Q Add0~1 $end
$var wire 1 R Add0~2_combout $end
$var wire 1 S count[1]~reg0_regout $end
$var wire 1 T Add0~3 $end
$var wire 1 U Add0~4_combout $end
$var wire 1 V count~0_combout $end
$var wire 1 W count[2]~reg0_regout $end
$var wire 1 X Add0~5 $end
$var wire 1 Y Add0~7 $end
$var wire 1 Z Add0~8_combout $end
$var wire 1 [ count[4]~reg0_regout $end
$var wire 1 \ Add0~9 $end
$var wire 1 ] Add0~10_combout $end
$var wire 1 ^ count[5]~reg0_regout $end
$var wire 1 _ Add0~11 $end
$var wire 1 ` Add0~12_combout $end
$var wire 1 a count[6]~reg0_regout $end
$var wire 1 b Equal0~1_combout $end
$var wire 1 c Add0~13 $end
$var wire 1 d Add0~14_combout $end
$var wire 1 e count[7]~reg0_regout $end
$var wire 1 f Add0~15 $end
$var wire 1 g Add0~17 $end
$var wire 1 h Add0~18_combout $end
$var wire 1 i count[9]~reg0_regout $end
$var wire 1 j Add0~19 $end
$var wire 1 k Add0~21 $end
$var wire 1 l Add0~22_combout $end
$var wire 1 m count[11]~reg0_regout $end
$var wire 1 n Add0~16_combout $end
$var wire 1 o count[8]~reg0_regout $end
$var wire 1 p Equal0~2_combout $end
$var wire 1 q Add0~6_combout $end
$var wire 1 r count[3]~reg0_regout $end
$var wire 1 s Equal0~0_combout $end
$var wire 1 t Equal0~4_combout $end
$var wire 1 u tick~reg0feeder_combout $end
$var wire 1 v tick~reg0_regout $end
$var wire 1 w Add0~20_combout $end
$var wire 1 x count[10]~reg0_regout $end
$var wire 1 y Add0~23 $end
$var wire 1 z Add0~24_combout $end
$var wire 1 { count[12]~reg0_regout $end
$var wire 1 | Add0~25 $end
$var wire 1 } Add0~26_combout $end
$var wire 1 ~ count[13]~reg0_regout $end
$var wire 1 !! Add0~27 $end
$var wire 1 "! Add0~28_combout $end
$var wire 1 #! count[14]~reg0_regout $end
$var wire 1 $! Add0~29 $end
$var wire 1 %! Add0~30_combout $end
$var wire 1 &! count[15]~reg0_regout $end
$var wire 1 '! tick~reg0clkctrl_outclk $end
$var wire 1 (! counter[0]~45_combout $end
$var wire 1 )! counter[0]~reg0_regout $end
$var wire 1 *! counter[1]~15_combout $end
$var wire 1 +! counter[1]~reg0_regout $end
$var wire 1 ,! counter[1]~16 $end
$var wire 1 -! counter[2]~17_combout $end
$var wire 1 .! counter[2]~reg0_regout $end
$var wire 1 /! counter[2]~18 $end
$var wire 1 0! counter[3]~19_combout $end
$var wire 1 1! counter[3]~reg0_regout $end
$var wire 1 2! counter[3]~20 $end
$var wire 1 3! counter[4]~21_combout $end
$var wire 1 4! counter[4]~reg0_regout $end
$var wire 1 5! counter[4]~22 $end
$var wire 1 6! counter[5]~23_combout $end
$var wire 1 7! counter[5]~reg0_regout $end
$var wire 1 8! counter[5]~24 $end
$var wire 1 9! counter[6]~25_combout $end
$var wire 1 :! counter[6]~reg0_regout $end
$var wire 1 ;! counter[6]~26 $end
$var wire 1 <! counter[7]~27_combout $end
$var wire 1 =! counter[7]~reg0_regout $end
$var wire 1 >! counter[7]~28 $end
$var wire 1 ?! counter[8]~29_combout $end
$var wire 1 @! counter[8]~reg0_regout $end
$var wire 1 A! counter[8]~30 $end
$var wire 1 B! counter[9]~31_combout $end
$var wire 1 C! counter[9]~reg0_regout $end
$var wire 1 D! counter[9]~32 $end
$var wire 1 E! counter[10]~33_combout $end
$var wire 1 F! counter[10]~reg0_regout $end
$var wire 1 G! counter[10]~34 $end
$var wire 1 H! counter[11]~35_combout $end
$var wire 1 I! counter[11]~reg0_regout $end
$var wire 1 J! counter[11]~36 $end
$var wire 1 K! counter[12]~37_combout $end
$var wire 1 L! counter[12]~reg0_regout $end
$var wire 1 M! counter[12]~38 $end
$var wire 1 N! counter[13]~39_combout $end
$var wire 1 O! counter[13]~reg0_regout $end
$var wire 1 P! counter[13]~40 $end
$var wire 1 Q! counter[14]~41_combout $end
$var wire 1 R! counter[14]~reg0_regout $end
$var wire 1 S! counter[14]~42 $end
$var wire 1 T! counter[15]~43_combout $end
$var wire 1 U! counter[15]~reg0_regout $end
$upscope $end
$upscope $end
$enddefinitions $end
#0
$dumpvars
0!
1"
02
01
00
0/
0.
0-
0,
0+
0*
0)
0(
0'
0&
0%
0$
0#
0B
0A
0@
0?
0>
0=
0<
0;
0:
09
08
07
06
05
04
03
0C
xD
0E
1F
xG
1H
1I
1J
1K
0L
0M
1N
1O
0P
0Q
0R
0S
1T
0U
0V
0W
0X
1Y
0Z
0[
0\
0]
0^
1_
0`
0a
1b
0c
0d
0e
1f
0g
0h
0i
1j
0k
0l
0m
0n
0o
1p
0q
0r
0s
0t
0u
0v
0w
0x
1y
0z
0{
0|
0}
0~
1!!
0"!
0#!
0$!
0%!
0&!
0'!
1(!
0)!
0*!
0+!
0,!
0-!
0.!
1/!
00!
01!
02!
03!
04!
15!
06!
07!
08!
09!
0:!
1;!
0<!
0=!
0>!
0?!
0@!
1A!
0B!
0C!
0D!
0E!
0F!
1G!
0H!
0I!
0J!
0K!
0L!
1M!
0N!
0O!
0P!
0Q!
0R!
1S!
0T!
0U!
$end
#5000
1!
1L
1M
0D
1P
1Q
0N
12
1R
#10000
0!
0L
0M
1D
#15000
1!
1L
1M
0D
1S
0P
0T
0R
0Q
1N
11
02
1U
1T
1R
1V
0U
0V
#20000
0!
0L
0M
1D
#25000
1!
1L
1M
0D
1P
1s
1Q
0N
12
1t
0T
0R
1u
1U
#30000
0!
0L
0M
1D
#35000
1!
1L
1M
0D
1v
0S
0P
1'!
0s
1T
1R
0Q
1N
1C
01
02
0t
0U
0R
0u
1)!
1*!
0(!
1B
#40000
0!
0L
0M
1D
#45000
1!
1L
1M
0D
0v
1P
0'!
1Q
0N
0C
12
1R
#50000
0!
0L
0M
1D
#55000
1!
1L
1M
0D
1S
0P
0T
0R
0Q
1N
11
02
1U
1T
1R
1V
0U
0V
#60000
0!
0L
0M
1D
#65000
1!
1L
1M
0D
1P
1s
1Q
0N
12
1t
0T
0R
1u
1U
#70000
0!
0L
0M
1D
#75000
1!
1L
1M
0D
1v
0S
0P
1'!
0s
1T
1R
0Q
1N
1C
01
02
0t
0U
0R
0u
1+!
0)!
1(!
1A
0B
#80000
0!
0L
0M
1D
#85000
1!
1L
1M
0D
0v
1P
0'!
1Q
0N
0C
12
1R
#90000
0!
0L
0M
1D
#95000
1!
1L
1M
0D
1S
0P
0T
0R
0Q
1N
11
02
1U
1T
1R
1V
0U
0V
#100000
0!
0L
0M
1D
#105000
1!
1L
1M
0D
1P
1s
1Q
0N
12
1t
0T
0R
1u
1U
#110000
0!
0L
0M
1D
#115000
1!
1L
1M
0D
1v
0S
0P
1'!
0s
1T
1R
0Q
1N
1C
01
02
0t
0U
0R
0u
1)!
1,!
0*!
0(!
1B
1-!
#120000
0!
0L
0M
1D
#125000
1!
1L
1M
0D
0v
1P
0'!
1Q
0N
0C
12
1R
#130000
0!
0L
0M
1D
#135000
1!
1L
1M
0D
1S
0P
0T
0R
0Q
1N
11
02
1U
1T
1R
1V
0U
0V
#140000
0!
0L
0M
1D
#145000
1!
1L
1M
0D
1P
1s
1Q
0N
12
1t
0T
0R
1u
1U
#150000
0!
0L
0M
1D
#155000
1!
1L
1M
0D
1v
0S
0P
1'!
0s
1T
1R
0Q
1N
1C
01
02
0t
0U
0R
0u
1.!
0+!
0)!
0/!
0-!
0,!
1(!
1@
0A
0B
10!
1/!
1-!
00!
#160000
0!
0L
0M
1D
#165000
1!
1L
1M
0D
0v
1P
0'!
1Q
0N
0C
12
1R
#170000
0!
0L
0M
1D
#175000
1!
1L
1M
0D
1S
0P
0T
0R
0Q
1N
11
02
1U
1T
1R
1V
0U
0V
#180000
0!
0L
0M
1D
#185000
1!
1L
1M
0D
1P
1s
1Q
0N
12
1t
0T
0R
1u
1U
#190000
0!
0L
0M
1D
#195000
1!
1L
1M
0D
1v
0S
0P
1'!
0s
1T
1R
0Q
1N
1C
01
02
0t
0U
0R
0u
1)!
1*!
0(!
1B
#200000
0!
0L
0M
1D
#205000
1!
1L
1M
0D
0v
1P
0'!
1Q
0N
0C
12
1R
#210000
0!
0L
0M
1D
#215000
1!
1L
1M
0D
1S
0P
0T
0R
0Q
1N
11
02
1U
1T
1R
1V
0U
0V
#220000
0!
0L
0M
1D
#225000
1!
1L
1M
0D
1P
1s
1Q
0N
12
1t
0T
0R
1u
1U
#230000
0!
0L
0M
1D
#235000
1!
1L
1M
0D
1v
0S
0P
1'!
0s
1T
1R
0Q
1N
1C
01
02
0t
0U
0R
0u
1+!
0)!
1(!
1A
0B
#240000
0!
0L
0M
1D
#245000
1!
1L
1M
0D
0v
1P
0'!
1Q
0N
0C
12
1R
#250000
0!
0L
0M
1D
#255000
1!
1L
1M
0D
1S
0P
0T
0R
0Q
1N
11
02
1U
1T
1R
1V
0U
0V
#260000
0!
0L
0M
1D
#265000
1!
1L
1M
0D
1P
1s
1Q
0N
12
1t
0T
0R
1u
1U
#270000
0!
0L
0M
1D
#275000
1!
1L
1M
0D
1v
0S
0P
1'!
0s
1T
1R
0Q
1N
1C
01
02
0t
0U
0R
0u
1)!
1,!
0*!
0(!
1B
0/!
0-!
10!
#280000
0!
0L
0M
1D
#285000
1!
1L
1M
0D
0v
1P
0'!
1Q
0N
0C
12
1R
#290000
0!
0L
0M
1D
#295000
1!
1L
1M
0D
1S
0P
0T
0R
0Q
1N
11
02
1U
1T
1R
1V
0U
0V
#300000
0!
0L
0M
1D
#305000
1!
1L
1M
0D
1P
1s
1Q
0N
12
1t
0T
0R
1u
1U
#310000
0!
0L
0M
1D
#315000
1!
1L
1M
0D
1v
0S
0P
1'!
0s
1T
1R
0Q
1N
1C
01
02
0t
0U
0R
0u
11!
0.!
0+!
0)!
12!
00!
1/!
1-!
0,!
1(!
1?
0@
0A
0B
13!
02!
10!
0-!
03!
#320000
0!
0L
0M
1D
#325000
1!
1L
1M
0D
0v
1P
0'!
1Q
0N
0C
12
1R
#330000
0!
0L
0M
1D
#335000
1!
1L
1M
0D
1S
0P
0T
0R
0Q
1N
11
02
1U
1T
1R
1V
0U
0V
#340000
0!
0L
0M
1D
#345000
1!
1L
1M
0D
1P
1s
1Q
0N
12
1t
0T
0R
1u
1U
#350000
0!
0L
0M
1D
#355000
1!
1L
1M
0D
1v
0S
0P
1'!
0s
1T
1R
0Q
1N
1C
01
02
0t
0U
0R
0u
1)!
1*!
0(!
1B
#360000
0!
0L
0M
1D
#365000
1!
1L
1M
0D
0v
1P
0'!
1Q
0N
0C
12
1R
#370000
0!
0L
0M
1D
#375000
1!
1L
1M
0D
1S
0P
0T
0R
0Q
1N
11
02
1U
1T
1R
1V
0U
0V
#380000
0!
0L
0M
1D
#385000
1!
1L
1M
0D
1P
1s
1Q
0N
12
1t
0T
0R
1u
1U
#390000
0!
0L
0M
1D
#395000
1!
1L
1M
0D
1v
0S
0P
1'!
0s
1T
1R
0Q
1N
1C
01
02
0t
0U
0R
0u
1+!
0)!
1(!
1A
0B
#400000
0!
0L
0M
1D
#405000
1!
1L
1M
0D
0v
1P
0'!
1Q
0N
0C
12
1R
#410000
0!
0L
0M
1D
#415000
1!
1L
1M
0D
1S
0P
0T
0R
0Q
1N
11
02
1U
1T
1R
1V
0U
0V
#420000
0!
0L
0M
1D
#425000
1!
1L
1M
0D
1P
1s
1Q
0N
12
1t
0T
0R
1u
1U
#430000
0!
0L
0M
1D
#435000
1!
1L
1M
0D
1v
0S
0P
1'!
0s
1T
1R
0Q
1N
1C
01
02
0t
0U
0R
0u
1)!
1,!
0*!
0(!
1B
1-!
#440000
0!
0L
0M
1D
#445000
1!
1L
1M
0D
0v
1P
0'!
1Q
0N
0C
12
1R
#450000
0!
0L
0M
1D
#455000
1!
1L
1M
0D
1S
0P
0T
0R
0Q
1N
11
02
1U
1T
1R
1V
0U
0V
#460000
0!
0L
0M
1D
#465000
1!
1L
1M
0D
1P
1s
1Q
0N
12
1t
0T
0R
1u
1U
#470000
0!
0L
0M
1D
#475000
1!
1L
1M
0D
1v
0S
0P
1'!
0s
1T
1R
0Q
1N
1C
01
02
0t
0U
0R
0u
1.!
0+!
0)!
0/!
0-!
0,!
1(!
1@
0A
0B
12!
00!
1/!
1-!
13!
02!
10!
03!
#480000
0!
0L
0M
1D
#485000
1!
1L
1M
0D
0v
1P
0'!
1Q
0N
0C
12
1R
#490000
0!
0L
0M
1D
#495000
1!
1L
1M
0D
1S
0P
0T
0R
0Q
1N
11
02
1U
1T
1R
1V
0U
0V
#500000
0!
0L
0M
1D
#505000
1!
1L
1M
0D
1P
1s
1Q
0N
12
1t
0T
0R
1u
1U
#510000
0!
0L
0M
1D
#515000
1!
1L
1M
0D
1v
0S
0P
1'!
0s
1T
1R
0Q
1N
1C
01
02
0t
0U
0R
0u
1)!
1*!
0(!
1B
#520000
0!
0L
0M
1D
#525000
1!
1L
1M
0D
0v
1P
0'!
1Q
0N
0C
12
1R
#530000
0!
0L
0M
1D
#535000
1!
1L
1M
0D
1S
0P
0T
0R
0Q
1N
11
02
1U
1T
1R
1V
0U
0V
#540000
0!
0L
0M
1D
#545000
1!
1L
1M
0D
1P
1s
1Q
0N
12
1t
0T
0R
1u
1U
#550000
0!
0L
0M
1D
#555000
1!
1L
1M
0D
1v
0S
0P
1'!
0s
1T
1R
0Q
1N
1C
01
02
0t
0U
0R
0u
1+!
0)!
1(!
1A
0B
#560000
0!
0L
0M
1D
#565000
1!
1L
1M
0D
0v
1P
0'!
1Q
0N
0C
12
1R
#570000
0!
0L
0M
1D
#575000
1!
1L
1M
0D
1S
0P
0T
0R
0Q
1N
11
02
1U
1T
1R
1V
0U
0V
#580000
0!
0L
0M
1D
#585000
1!
1L
1M
0D
1P
1s
1Q
0N
12
1t
0T
0R
1u
1U
#590000
0!
0L
0M
1D
#595000
1!
1L
1M
0D
1v
0S
0P
1'!
0s
1T
1R
0Q
1N
1C
01
02
0t
0U
0R
0u
1)!
1,!
0*!
0(!
1B
0/!
0-!
12!
00!
13!
#600000
0!
0L
0M
1D
#605000
1!
1L
1M
0D
0v
1P
0'!
1Q
0N
0C
12
1R
#610000
0!
0L
0M
1D
#615000
1!
1L
1M
0D
1S
0P
0T
0R
0Q
1N
11
02
1U
1T
1R
1V
0U
0V
#620000
0!
0L
0M
1D
#625000
1!
1L
1M
0D
1P
1s
1Q
0N
12
1t
0T
0R
1u
1U
#630000
0!
0L
0M
1D
#635000
1!
1L
1M
0D
1v
0S
0P
1'!
0s
1T
1R
0Q
1N
1C
01
02
0t
0U
0R
0u
14!
01!
0.!
0+!
0)!
05!
03!
02!
10!
1/!
1-!
0,!
1(!
1>
0?
0@
0A
0B
16!
15!
13!
00!
0-!
06!
#640000
0!
0L
0M
1D
#645000
1!
1L
1M
0D
0v
1P
0'!
1Q
0N
0C
12
1R
#650000
0!
0L
0M
1D
#655000
1!
1L
1M
0D
1S
0P
0T
0R
0Q
1N
11
02
1U
1T
1R
1V
0U
0V
#660000
0!
0L
0M
1D
#665000
1!
1L
1M
0D
1P
1s
1Q
0N
12
1t
0T
0R
1u
1U
#670000
0!
0L
0M
1D
#675000
1!
1L
1M
0D
1v
0S
0P
1'!
0s
1T
1R
0Q
1N
1C
01
02
0t
0U
0R
0u
1)!
1*!
0(!
1B
#680000
0!
0L
0M
1D
#685000
1!
1L
1M
0D
0v
1P
0'!
1Q
0N
0C
12
1R
#690000
0!
0L
0M
1D
#695000
1!
1L
1M
0D
1S
0P
0T
0R
0Q
1N
11
02
1U
1T
1R
1V
0U
0V
#700000
0!
0L
0M
1D
#705000
1!
1L
1M
0D
1P
1s
1Q
0N
12
1t
0T
0R
1u
1U
#710000
0!
0L
0M
1D
#715000
1!
1L
1M
0D
1v
0S
0P
1'!
0s
1T
1R
0Q
1N
1C
01
02
0t
0U
0R
0u
1+!
0)!
1(!
1A
0B
#720000
0!
0L
0M
1D
#725000
1!
1L
1M
0D
0v
1P
0'!
1Q
0N
0C
12
1R
#730000
0!
0L
0M
1D
#735000
1!
1L
1M
0D
1S
0P
0T
0R
0Q
1N
11
02
1U
1T
1R
1V
0U
0V
#740000
0!
0L
0M
1D
#745000
1!
1L
1M
0D
1P
1s
1Q
0N
12
1t
0T
0R
1u
1U
#750000
0!
0L
0M
1D
#755000
1!
1L
1M
0D
1v
0S
0P
1'!
0s
1T
1R
0Q
1N
1C
01
02
0t
0U
0R
0u
1)!
1,!
0*!
0(!
1B
1-!
#760000
0!
0L
0M
1D
#765000
1!
1L
1M
0D
0v
1P
0'!
1Q
0N
0C
12
1R
#770000
0!
0L
0M
1D
#775000
1!
1L
1M
0D
1S
0P
0T
0R
0Q
1N
11
02
1U
1T
1R
1V
0U
0V
#780000
0!
0L
0M
1D
#785000
1!
1L
1M
0D
1P
1s
1Q
0N
12
1t
0T
0R
1u
1U
#790000
0!
0L
0M
1D
#795000
1!
1L
1M
0D
1v
0S
0P
1'!
0s
1T
1R
0Q
1N
1C
01
02
0t
0U
0R
0u
1.!
0+!
0)!
0/!
0-!
0,!
1(!
1@
0A
0B
10!
1/!
1-!
00!
#800000
0!
0L
0M
1D
#805000
1!
1L
1M
0D
0v
1P
0'!
1Q
0N
0C
12
1R
#810000
0!
0L
0M
1D
#815000
1!
1L
1M
0D
1S
0P
0T
0R
0Q
1N
11
02
1U
1T
1R
1V
0U
0V
#820000
0!
0L
0M
1D
#825000
1!
1L
1M
0D
1P
1s
1Q
0N
12
1t
0T
0R
1u
1U
#830000
0!
0L
0M
1D
#835000
1!
1L
1M
0D
1v
0S
0P
1'!
0s
1T
1R
0Q
1N
1C
01
02
0t
0U
0R
0u
1)!
1*!
0(!
1B
#840000
0!
0L
0M
1D
#845000
1!
1L
1M
0D
0v
1P
0'!
1Q
0N
0C
12
1R
#850000
0!
0L
0M
1D
#855000
1!
1L
1M
0D
1S
0P
0T
0R
0Q
1N
11
02
1U
1T
1R
1V
0U
0V
#860000
0!
0L
0M
1D
#865000
1!
1L
1M
0D
1P
1s
1Q
0N
12
1t
0T
0R
1u
1U
#870000
0!
0L
0M
1D
#875000
1!
1L
1M
0D
1v
0S
0P
1'!
0s
1T
1R
0Q
1N
1C
01
02
0t
0U
0R
0u
1+!
0)!
1(!
1A
0B
#880000
0!
0L
0M
1D
#885000
1!
1L
1M
0D
0v
1P
0'!
1Q
0N
0C
12
1R
#890000
0!
0L
0M
1D
#895000
1!
1L
1M
0D
1S
0P
0T
0R
0Q
1N
11
02
1U
1T
1R
1V
0U
0V
#900000
0!
0L
0M
1D
#905000
1!
1L
1M
0D
1P
1s
1Q
0N
12
1t
0T
0R
1u
1U
#910000
0!
0L
0M
1D
#915000
1!
1L
1M
0D
1v
0S
0P
1'!
0s
1T
1R
0Q
1N
1C
01
02
0t
0U
0R
0u
1)!
1,!
0*!
0(!
1B
0/!
0-!
10!
#920000
0!
0L
0M
1D
#925000
1!
1L
1M
0D
0v
1P
0'!
1Q
0N
0C
12
1R
#930000
0!
0L
0M
1D
#935000
1!
1L
1M
0D
1S
0P
0T
0R
0Q
1N
11
02
1U
1T
1R
1V
0U
0V
#940000
0!
0L
0M
1D
#945000
1!
1L
1M
0D
1P
1s
1Q
0N
12
1t
0T
0R
1u
1U
#950000
0!
0L
0M
1D
#955000
1!
1L
1M
0D
1v
0S
0P
1'!
0s
1T
1R
0Q
1N
1C
01
02
0t
0U
0R
0u
11!
0.!
0+!
0)!
12!
00!
1/!
1-!
0,!
1(!
1?
0@
0A
0B
05!
03!
02!
10!
0-!
16!
15!
13!
06!
#960000
0!
0L
0M
1D
#965000
1!
1L
1M
0D
0v
1P
0'!
1Q
0N
0C
12
1R
#970000
0!
0L
0M
1D
#975000
1!
1L
1M
0D
1S
0P
0T
0R
0Q
1N
11
02
1U
1T
1R
1V
0U
0V
#980000
0!
0L
0M
1D
#985000
1!
1L
1M
0D
1P
1s
1Q
0N
12
1t
0T
0R
1u
1U
#990000
0!
0L
0M
1D
#995000
1!
1L
1M
0D
1v
0S
0P
1'!
0s
1T
1R
0Q
1N
1C
01
02
0t
0U
0R
0u
1)!
1*!
0(!
1B
